#FIG 3.2
Portrait
Flush left
Inches
Letter
100.00
Single
0
1200 2
# polyline
2 1 0 1 2 2 999 0 -1 4.0 0 0 0 0 0 4
	1199 4800 2866 4800 8399 10333 8399 12000
# spline
3 4 0 1 0 0 997 0 -1 4.0 0 0 0 6
	1199 4800 2588 5388 4454 6854 6345 8745 7811 10611 
	8399 12000
	 0  0  -1  -1  -1  0
# spline
3 4 0 1 0 0 995 0 -1 4.0 0 0 0 6
	1199 4800 3228 5228 5174 6374 6825 8025 7971 9971 
	8399 12000
	 0  0  -1  -1  -1  0
# spline
3 4 0 1 4 4 993 0 -1 4.0 0 0 0 11
	1199 5333 2026 5519 2613 6026 3119 6773 3706 7680 
	4533 8666 5359 9653 5946 10559 6453 11306 7039 11813 
	7866 12000
	 0  0  -1  -1  -1  0  0  -1 
	 -1  -1  0
# polyline
2 1 0 1 4 4 991 0 -1 4.0 0 0 0 0 0 7
	1199 5333 2866 5333 2866 7000 4533 8666 6199 10333 
	6199 12000 7866 12000
